<?xml version="1.0" encoding="UTF-8" standalone="no"?>
<!-- Created with Inkscape (http://www.inkscape.org/) -->

<svg
        xmlns:dc="http://purl.org/dc/elements/1.1/"
        xmlns:cc="http://creativecommons.org/ns#"
        xmlns:rdf="http://www.w3.org/1999/02/22-rdf-syntax-ns#"
        xmlns="http://www.w3.org/2000/svg"
        xmlns:sodipodi="http://sodipodi.sourceforge.net/DTD/sodipodi-0.dtd"
        xmlns:inkscape="http://www.inkscape.org/namespaces/inkscape"
        width="210mm"
        height="297mm"
        viewBox="0 0 210 297"
        version="1.1"
        id="svg8"
        inkscape:export-filename="D:\graphics\trigger_label.png"
        inkscape:export-xdpi="49.780811"
        inkscape:export-ydpi="49.780811"
        inkscape:version="0.92.4 (5da689c313, 2019-01-14)"
        sodipodi:docname="channel_labels.svg">
  <defs
     id="defs2">
    <inkscape:perspective
       sodipodi:type="inkscape:persp3d"
       inkscape:vp_x="0 : 148.5 : 1"
       inkscape:vp_y="0 : 1000 : 0"
       inkscape:vp_z="210 : 148.5 : 1"
       inkscape:persp3d-origin="105 : 99 : 1"
       id="perspective1024" />
  </defs>
  <sodipodi:namedview
     id="base"
     pagecolor="#ffffff"
     bordercolor="#666666"
     borderopacity="1.0"
     inkscape:pageopacity="0.0"
     inkscape:pageshadow="2"
     inkscape:zoom="1.036247"
     inkscape:cx="159.70358"
     inkscape:cy="936.95086"
     inkscape:document-units="mm"
     inkscape:current-layer="layer1"
     showgrid="false"
     inkscape:window-width="1366"
     inkscape:window-height="705"
     inkscape:window-x="-8"
     inkscape:window-y="-8"
     inkscape:window-maximized="1"
     inkscape:snap-global="false" />
  <metadata
     id="metadata5">
    <rdf:RDF>
      <cc:Work
         rdf:about="">
        <dc:format>image/svg+xml</dc:format>
        <dc:type
           rdf:resource="http://purl.org/dc/dcmitype/StillImage" />
        <dc:title />
      </cc:Work>
    </rdf:RDF>
  </metadata>
  <g
     inkscape:label="Layer 1"
     inkscape:groupmode="layer"
     id="layer1">
    <g
       id="g1022"
       transform="translate(-17.866763,-98.889725)"
       inkscape:export-xdpi="43.497437"
       inkscape:export-ydpi="43.497437">
      <text
         inkscape:export-ydpi="40.968681"
         inkscape:export-xdpi="40.968681"
         id="text817-4-8-5"
         y="198.06534"
         x="57.65086"
         style="font-style:normal;font-variant:normal;font-weight:normal;font-stretch:normal;font-size:10.58333302px;line-height:1.25;font-family:Bahnschrift;-inkscape-font-specification:Bahnschrift;letter-spacing:0px;word-spacing:0px;fill:#000000;fill-opacity:1;stroke:none;stroke-width:0.26458332"
         xml:space="preserve"><tspan
           style="stroke-width:0.26458332"
           y="198.06534"
           x="57.65086"
           id="tspan815-9-9-1"
           sodipodi:role="line">Horizontal</tspan></text>
      <rect
         inkscape:export-ydpi="40.968681"
         inkscape:export-xdpi="40.968681"
         y="191.70139"
         x="22.778509"
         height="5.2916665"
         width="31.938988"
         id="rect819-66-1-9"
         style="fill:#808080;fill-opacity:1;stroke:none;stroke-width:1.5875001;stroke-miterlimit:4;stroke-dasharray:none;stroke-opacity:1" />
      <rect
         inkscape:export-ydpi="40.968681"
         inkscape:export-xdpi="40.968681"
         y="191.70139"
         x="110.37447"
         height="5.2916665"
         width="31.938988"
         id="rect819-7-3-5-6"
         style="fill:#808080;fill-opacity:1;stroke:none;stroke-width:1.5875001;stroke-miterlimit:4;stroke-dasharray:none;stroke-opacity:1" />
    </g>
    <g
       id="g1034"
       inkscape:export-xdpi="41.920681"
       inkscape:export-ydpi="41.920681">
      <text
         inkscape:export-ydpi="40.968681"
         inkscape:export-xdpi="40.968681"
         id="text817-4-8-5-0"
         y="80.929306"
         x="47.473873"
         style="font-style:normal;font-variant:normal;font-weight:normal;font-stretch:normal;font-size:10.58333302px;line-height:1.25;font-family:Bahnschrift;-inkscape-font-specification:Bahnschrift;letter-spacing:0px;word-spacing:0px;fill:#000000;fill-opacity:1;stroke:none;stroke-width:0.26458332"
         xml:space="preserve"><tspan
           style="stroke-width:0.26458332"
           y="80.929306"
           x="47.473873"
           id="tspan815-9-9-1-8"
           sodipodi:role="line">Trigger</tspan></text>
      <rect
         inkscape:export-ydpi="40.968681"
         inkscape:export-xdpi="40.968681"
         y="75.616966"
         x="4.3772097"
         height="5.2916665"
         width="31.938988"
         id="rect819-66-1-9-9"
         style="fill:#808080;fill-opacity:1;stroke:none;stroke-width:1.5875001;stroke-miterlimit:4;stroke-dasharray:none;stroke-opacity:1" />
      <rect
         inkscape:export-ydpi="40.968681"
         inkscape:export-xdpi="40.968681"
         y="75.616966"
         x="91.973167"
         height="5.2916665"
         width="31.938988"
         id="rect819-7-3-5-6-7"
         style="fill:#808080;fill-opacity:1;stroke:none;stroke-width:1.5875001;stroke-miterlimit:4;stroke-dasharray:none;stroke-opacity:1" />
    </g>
    <g
       id="g1010"
       transform="translate(-22.450642,-99.103523)"
       inkscape:export-xdpi="43.05759"
       inkscape:export-ydpi="43.05759">
      <text
         inkscape:export-ydpi="40.968681"
         inkscape:export-xdpi="40.968681"
         id="text817-4-8-5-0-5"
         y="166.03174"
         x="63.743694"
         style="font-style:normal;font-variant:normal;font-weight:normal;font-stretch:normal;font-size:10.58333302px;line-height:1.25;font-family:Bahnschrift;-inkscape-font-specification:Bahnschrift;letter-spacing:0px;word-spacing:0px;fill:#000000;fill-opacity:1;stroke:none;stroke-width:0.26458332"
         xml:space="preserve"><tspan
           style="stroke-width:0.26458332"
           y="166.03174"
           x="63.743694"
           id="tspan815-9-9-1-8-7"
           sodipodi:role="line">Channel 4</tspan></text>
      <rect
         inkscape:export-ydpi="40.968681"
         inkscape:export-xdpi="40.968681"
         y="159.66779"
         x="27.362391"
         height="5.2916665"
         width="31.938988"
         id="rect819-66-1-9-9-7"
         style="fill:#ff0000;fill-opacity:1;stroke:none;stroke-width:1.5875001;stroke-miterlimit:4;stroke-dasharray:none;stroke-opacity:1" />
      <rect
         inkscape:export-ydpi="40.968681"
         inkscape:export-xdpi="40.968681"
         y="159.66779"
         x="114.95835"
         height="5.2916665"
         width="31.938988"
         id="rect819-7-3-5-6-7-4"
         style="fill:#ff0000;fill-opacity:1;stroke:none;stroke-width:1.5875001;stroke-miterlimit:4;stroke-dasharray:none;stroke-opacity:1" />
    </g>
    <g
       id="g1004"
       transform="translate(-14.967093,-100.27953)"
       inkscape:export-xdpi="43.057682"
       inkscape:export-ydpi="43.057682">
      <text
         inkscape:export-ydpi="40.968681"
         inkscape:export-xdpi="40.968681"
         id="text817-4-8-5-0-0"
         y="151.06465"
         x="56.575375"
         style="font-style:normal;font-variant:normal;font-weight:normal;font-stretch:normal;font-size:10.58333302px;line-height:1.25;font-family:Bahnschrift;-inkscape-font-specification:Bahnschrift;letter-spacing:0px;word-spacing:0px;fill:#000000;fill-opacity:1;stroke:none;stroke-width:0.26458332"
         xml:space="preserve"><tspan
           style="stroke-width:0.26458332"
           y="151.06465"
           x="56.575375"
           id="tspan815-9-9-1-8-3"
           sodipodi:role="line">Channel 3</tspan></text>
      <rect
         inkscape:export-ydpi="40.968681"
         inkscape:export-xdpi="40.968681"
         y="144.7007"
         x="19.878843"
         height="5.2916665"
         width="31.938988"
         id="rect819-66-1-9-9-5"
         style="fill:#0000ff;fill-opacity:1;stroke:none;stroke-width:1.5875001;stroke-miterlimit:4;stroke-dasharray:none;stroke-opacity:1" />
      <rect
         inkscape:export-ydpi="40.968681"
         inkscape:export-xdpi="40.968681"
         y="144.7007"
         x="107.4748"
         height="5.2916665"
         width="31.938988"
         id="rect819-7-3-5-6-7-2"
         style="fill:#0000ff;fill-opacity:1;stroke:none;stroke-width:1.5875001;stroke-miterlimit:4;stroke-dasharray:none;stroke-opacity:1" />
    </g>
    <g
       id="g998"
       transform="translate(-12.828942,-100.92096)"
       inkscape:export-xdpi="42.498032"
       inkscape:export-ydpi="42.498032">
      <text
         inkscape:export-ydpi="40.968681"
         inkscape:export-xdpi="40.968681"
         id="text817-4-8-5-0-4"
         y="135.56302"
         x="54.958839"
         style="font-style:normal;font-variant:normal;font-weight:normal;font-stretch:normal;font-size:10.58333302px;line-height:1.25;font-family:Bahnschrift;-inkscape-font-specification:Bahnschrift;letter-spacing:0px;word-spacing:0px;fill:#000000;fill-opacity:1;stroke:none;stroke-width:0.26458332"
         xml:space="preserve"><tspan
           style="stroke-width:0.26458332"
           y="135.56302"
           x="54.958839"
           id="tspan815-9-9-1-8-0"
           sodipodi:role="line">Channel 2</tspan></text>
      <rect
         inkscape:export-ydpi="40.968681"
         inkscape:export-xdpi="40.968681"
         y="129.19907"
         x="18.275227"
         height="5.2916665"
         width="31.938988"
         id="rect819-66-1-9-9-1"
         style="fill:#00ff00;fill-opacity:1;stroke:none;stroke-width:1.5875001;stroke-miterlimit:4;stroke-dasharray:none;stroke-opacity:1" />
      <rect
         inkscape:export-ydpi="40.968681"
         inkscape:export-xdpi="40.968681"
         y="129.19907"
         x="105.87119"
         height="5.2916665"
         width="31.938988"
         id="rect819-7-3-5-6-7-48"
         style="fill:#00ff00;fill-opacity:1;stroke:none;stroke-width:1.5875001;stroke-miterlimit:4;stroke-dasharray:none;stroke-opacity:1" />
    </g>
    <g
       id="g992"
       transform="translate(-9.6217026,-97.286107)"
       inkscape:export-xdpi="42.498032"
       inkscape:export-ydpi="42.498032">
      <text
         inkscape:export-ydpi="40.968681"
         inkscape:export-xdpi="40.968681"
         id="text817-4-8-5-0-03"
         y="115.78507"
         x="52.372032"
         style="font-style:normal;font-variant:normal;font-weight:normal;font-stretch:normal;font-size:10.58333302px;line-height:1.25;font-family:Bahnschrift;-inkscape-font-specification:Bahnschrift;letter-spacing:0px;word-spacing:0px;fill:#000000;fill-opacity:1;stroke:none;stroke-width:0.26458332"
         xml:space="preserve"><tspan
           style="stroke-width:0.26458332"
           y="115.78507"
           x="52.372032"
           id="tspan815-9-9-1-8-2"
           sodipodi:role="line">Channel 1</tspan></text>
      <rect
         inkscape:export-ydpi="40.968681"
         inkscape:export-xdpi="40.968681"
         y="109.42112"
         x="14.533453"
         height="5.2916665"
         width="31.938988"
         id="rect819-66-1-9-9-3"
         style="fill:#ffff00;fill-opacity:1;stroke:none;stroke-width:1.5875001;stroke-miterlimit:4;stroke-dasharray:none;stroke-opacity:1" />
      <rect
         inkscape:export-ydpi="40.968681"
         inkscape:export-xdpi="40.968681"
         y="109.42112"
         x="102.12941"
         height="5.2916665"
         width="31.938988"
         id="rect819-7-3-5-6-7-23"
         style="fill:#ffff00;fill-opacity:1;stroke:none;stroke-width:1.5875001;stroke-miterlimit:4;stroke-dasharray:none;stroke-opacity:1" />
    </g>
  </g>
</svg>
