<?xml version="1.0" encoding="UTF-8" standalone="no"?>
<!-- Created with Inkscape (http://www.inkscape.org/) -->

<svg
        xmlns:dc="http://purl.org/dc/elements/1.1/"
        xmlns:cc="http://creativecommons.org/ns#"
        xmlns:rdf="http://www.w3.org/1999/02/22-rdf-syntax-ns#"
        xmlns="http://www.w3.org/2000/svg"
        xmlns:sodipodi="http://sodipodi.sourceforge.net/DTD/sodipodi-0.dtd"
        xmlns:inkscape="http://www.inkscape.org/namespaces/inkscape"
        width="210mm"
        height="297mm"
        viewBox="0 0 210 297"
        version="1.1"
        id="svg8"
        inkscape:export-filename="D:\graphics\trigger_label.png"
        inkscape:export-xdpi="49.780811"
        inkscape:export-ydpi="49.780811"
        inkscape:version="0.92.4 (5da689c313, 2019-01-14)"
        sodipodi:docname="channel_labels.svg">
  <defs
     id="defs2">
    <inkscape:perspective
       sodipodi:type="inkscape:persp3d"
       inkscape:vp_x="0 : 148.5 : 1"
       inkscape:vp_y="0 : 1000 : 0"
       inkscape:vp_z="210 : 148.5 : 1"
       inkscape:persp3d-origin="105 : 99 : 1"
       id="perspective1024" />
  </defs>
  <sodipodi:namedview
     id="base"
     pagecolor="#ffffff"
     bordercolor="#666666"
     borderopacity="1.0"
     inkscape:pageopacity="0.0"
     inkscape:pageshadow="2"
     inkscape:zoom="0.73273728"
     inkscape:cx="393.05285"
     inkscape:cy="764.27931"
     inkscape:document-units="mm"
     inkscape:current-layer="layer1"
     showgrid="false"
     inkscape:window-width="1366"
     inkscape:window-height="705"
     inkscape:window-x="-8"
     inkscape:window-y="296"
     inkscape:window-maximized="1"
     inkscape:snap-global="false" />
  <metadata
     id="metadata5">
    <rdf:RDF>
      <cc:Work
         rdf:about="">
        <dc:format>image/svg+xml</dc:format>
        <dc:type
           rdf:resource="http://purl.org/dc/dcmitype/StillImage" />
        <dc:title />
      </cc:Work>
    </rdf:RDF>
  </metadata>
  <g
     inkscape:label="Layer 1"
     inkscape:groupmode="layer"
     id="layer1">
    <text
       xml:space="preserve"
       style="font-style:normal;font-variant:normal;font-weight:normal;font-stretch:normal;font-size:10.58333302px;line-height:1.25;font-family:Bahnschrift;-inkscape-font-specification:Bahnschrift;letter-spacing:0px;word-spacing:0px;fill:#000000;fill-opacity:1;stroke:none;stroke-width:0.26458332"
       x="45.383007"
       y="68.554092"
       id="text817-4-8-5-0"
       inkscape:export-xdpi="40.968681"
       inkscape:export-ydpi="40.968681"><tspan
         sodipodi:role="line"
         id="tspan815-9-9-1-8"
         x="45.383007"
         y="68.554092"
         style="line-height:1;stroke-width:0.26458332">Connection</tspan><tspan
         sodipodi:role="line"
         x="45.383007"
         y="81.783257"
         style="line-height:1;stroke-width:0.26458332"
         id="tspan817">Status</tspan></text>
    <rect
       style="fill:#808080;fill-opacity:1;stroke:none;stroke-width:1.58750021;stroke-miterlimit:4;stroke-dasharray:none;stroke-opacity:1"
       id="rect819-7-3-5-6-7"
       width="96.935005"
       height="5.2916665"
       x="101.41779"
       y="69.478455"
       inkscape:export-xdpi="40.968681"
       inkscape:export-ydpi="40.968681" />
  </g>
</svg>
